bootstrap
…
Después de descargar del aula virtual el fichero bootstrapping.csv en la carpeta data de vuestra carpeta de prácticas, y haber examinado su estructura, cargar los datos en un tibble llamado starcraft.

# Completar aquí

library(tibble)
library(readr)
library(tidyverse)

starcraft <- read_csv('../../data/bootstrapping.csv', skip = 2)

# Fin Completar aquí
starcraft

# A tibble: 200 × 1
     apm
   <dbl>
 1 191. 
 2  77.6
 3  72.1
 4  91.3
 5  85.4
 6  62.0
 7 167. 
 8  88.4
 9 110. 
10 187. 
# ℹ 190 more rows
…
