bootstrap
…
Disponemos de un conjunto de datos de APM, que significa “Acciones Por Minuto”, es una medida utilizada en videojuegos, especialmente en los de estrategia en tiempo real, para indicar el número de acciones que un jugador puede realizar en un minuto, como clics y comandos del teclado. Refleja la rapidez y eficiencia con la que un jugador puede manejar múltiples tareas y tomar decisiones en el juego.

Después de descargar del aula virtual el fichero bootstrapping.csv en la carpeta data de vuestra carpeta de prácticas, y haber examinado su estructura, cargar los datos en un tibble llamado starcraft.

library(tidyverse)
DATA_DIRECTORY <- "../data/"
starcraft <- read_csv(
  paste0(DATA_DIRECTORY, "bootstrapping.csv"),
  skip = 2,
  show_col_types = FALSE
)

starcraft

# A tibble: 200 × 1
     apm
   <dbl>
 1 191. 
 2  77.6
 3  72.1
 4  91.3
 5  85.4
 6  62.0
 7 167. 
 8  88.4
 9 110. 
10 187. 
# ℹ 190 more rows
…
