Distribución en el muestreo
…
Definir un dataframe llamado simulaciones_S, que contenga una columna llamada s con 1000 valores simulados de \(S\).

# Completar aquí
# Generar 1000 valores simulados de S
valores_S <- obtener_mas_S(1000)

# Crear la tabla de representación
simulaciones_S <- tibble(s = valores_S)

simulaciones_S

# A tibble: 1,000 × 1
       s
   <int>
 1     8
 2     9
 3     5
 4     8
 5     6
 6     7
 7     5
 8     4
 9     7
10    10
# ℹ 990 more rows
…
